{
	"info": {
		"_postman_id": "590a187b-f4fe-43cd-850d-bdd1d76eb5c3",
		"name": "Exchange-Rate",
		"schema": "https://schema.getpostman.com/json/collection/v2.1.0/collection.json"
	},
	"item": [
		{
			"name": "Services",
			"item": [
				{
					"name": "Convert Money",
					"request": {
						"auth": {
							"type": "bearer",
							"bearer": [
								{
									"key": "token",
									"value": "eyJhbGciOiJIUzUxMiJ9.eyJyb2xlIjpbIlJPTEVfVVNFUiJdLCJzdWIiOiJ1c2VyIiwiaWF0IjoxNjQzNTY3ODkyLCJleHAiOjE2NDM1NjgxOTJ9.uZ25cocJdmIybrl7bDhYOzU5MKGmEBW72exEz6xeg4u5nJiHGcMASkVOh2P2txNtwmrCP2DXvbkpJM5R-48XsA",
									"type": "string"
								}
							]
						},
						"method": "POST",
						"header": [],
						"body": {
							"mode": "raw",
							"raw": "{\r\n    \"amount\": 1000.00,\r\n    \"originCurrency\": \"USD\",\r\n    \"destinationCurrency\": \"PEN\"     \r\n}",
							"options": {
								"raw": {
									"language": "json"
								}
							}
						},
						"url": {
							"raw": "http://localhost:5005/exchange-rate/conversion",
							"protocol": "http",
							"host": [
								"localhost"
							],
							"port": "5005",
							"path": [
								"exchange-rate",
								"conversion"
							]
						}
					},
					"response": []
				},
				{
					"name": "Update-Exchange-Rate",
					"request": {
						"auth": {
							"type": "bearer",
							"bearer": [
								{
									"key": "token",
									"value": "eyJhbGciOiJIUzUxMiJ9.eyJyb2xlIjpbIlJPTEVfVVNFUiJdLCJzdWIiOiJ1c2VyIiwiaWF0IjoxNjQzNTY3ODkyLCJleHAiOjE2NDM1NjgxOTJ9.uZ25cocJdmIybrl7bDhYOzU5MKGmEBW72exEz6xeg4u5nJiHGcMASkVOh2P2txNtwmrCP2DXvbkpJM5R-48XsA",
									"type": "string"
								}
							]
						},
						"method": "POST",
						"header": [],
						"body": {
							"mode": "raw",
							"raw": "{\r\n    \"exchangeRate\": 3.85  \r\n}",
							"options": {
								"raw": {
									"language": "json"
								}
							}
						},
						"url": {
							"raw": "http://localhost:5005/exchange-rate/d498810a-2909-4ca4-82ee-cec5fb396375",
							"protocol": "http",
							"host": [
								"localhost"
							],
							"port": "5005",
							"path": [
								"exchange-rate",
								"d498810a-2909-4ca4-82ee-cec5fb396375"
							]
						}
					},
					"response": []
				},
				{
					"name": "Get Exchange Rates By Currency",
					"request": {
						"auth": {
							"type": "bearer",
							"bearer": [
								{
									"key": "token",
									"value": "eyJhbGciOiJIUzUxMiJ9.eyJyb2xlIjpbIlJPTEVfVVNFUiJdLCJzdWIiOiJ1c2VyIiwiaWF0IjoxNjQzNTY3ODkyLCJleHAiOjE2NDM1NjgxOTJ9.uZ25cocJdmIybrl7bDhYOzU5MKGmEBW72exEz6xeg4u5nJiHGcMASkVOh2P2txNtwmrCP2DXvbkpJM5R-48XsA",
									"type": "string"
								}
							]
						},
						"method": "GET",
						"header": [],
						"url": {
							"raw": "http://localhost:5005/exchange-rate/?currency=USD",
							"protocol": "http",
							"host": [
								"localhost"
							],
							"port": "5005",
							"path": [
								"exchange-rate",
								""
							],
							"query": [
								{
									"key": "currency",
									"value": "USD"
								}
							]
						}
					},
					"response": []
				}
			]
		},
		{
			"name": "Security",
			"item": [
				{
					"name": "Login",
					"request": {
						"method": "POST",
						"header": [],
						"body": {
							"mode": "raw",
							"raw": "{\r\n    \"username\": \"user\",\r\n    \"password\": \"user\"\r\n}",
							"options": {
								"raw": {
									"language": "json"
								}
							}
						},
						"url": {
							"raw": "http://localhost:5005/authentication/login",
							"protocol": "http",
							"host": [
								"localhost"
							],
							"port": "5005",
							"path": [
								"authentication",
								"login"
							]
						}
					},
					"response": []
				}
			]
		},
		{
			"name": "Actuator",
			"item": [
				{
					"name": "Endpoints",
					"request": {
						"method": "GET",
						"header": [],
						"url": {
							"raw": "localhost:5005/cafh-poc-exchange-rate/v1/actuator",
							"host": [
								"localhost"
							],
							"port": "5005",
							"path": [
								"cafh-poc-exchange-rate",
								"v1",
								"actuator"
							]
						}
					},
					"response": []
				}
			]
		}
	]
}